Introduction to ggplot2 theme()
…
The color of the x-axis line

Is NOT a Theme:

The fill of the rectangles in geom_bar()

The size of the text in geom_label()

Data

library(tidyverse)
yeah_mhm <- read_csv("yeah_mhm-small.csv")
yeah_mhm

# A tibble: 66 × 3
   participant textLower stanceType   
   <chr>       <chr>     <chr>        
 1 WOOD        mhm       affirmation  
 2 WOOD        mhm       other        
 3 ALICE       yeah      other        
 4 ALICE       yeah      other        
 5 MARY        yeah      understanding
 6 MARY        yeah      understanding
 7 MARY        yeah      affirmation  
 8 ALICE       mhm       affirmation  
 9 MARY        mhm       understanding
10 MARY        mhm       understanding
# ℹ 56 more rows
…
